,Unnamed: 0,Cohesion_Dice,Cohesion_SCP,Conjuntos,Frequence,Tf_Idf,Tf_Idf vezes n,Score
0,5,0.6629834254143646,0.6382978723404256,agricultura de precisão,30,0.04631626426556931,0.13894879279670794,2.908029332807765
1,9,0.28205128205128205,0.10980036297640654,precisão é,11,0.01698263023070875,0.0339652604614175,2.907738430350104
2,16,0.2318840579710145,0.11267605633802814,conceito de agricultura,4,0.0061755019020759095,0.018526505706227728,2.906857489722196
3,8,0.145985401459854,0.07936507936507936,agricultura de precisão é uma filosofia,2,0.0030877509510379548,0.018526505706227728,2.9067664282867858
4,15,0.4615384615384616,0.3103448275862069,dentro de um campo,3,0.004631626426556931,0.018526505706227724,2.9070161215467523
5,7,0.6666666666666666,1.0,et al,7,0.008346666734353116,0.01669333346870623,2.9051003598808602
6,28,0.13333333333333333,0.0622568093385214,técnicas de agricultura de precisão,2,0.0030877509510379548,0.015438754755189769,2.904183432187583
7,24,0.6666666666666666,0.6666666666666666,fatores que afetam,3,0.004631626426556931,0.013894879279670792,2.9023948728647087
8,6,0.21875,0.08566433566433566,A agricultura,7,0.0069073889672348855,0.013814777934469771,2.4065719588067167
9,21,0.4,0.2727272727272728,atuais para o manejo,2,0.0030877509510379548,0.012351003804151816,2.905996132542148
10,36,0.3870967741935484,0.2033898305084746,sistema de posicionamento global,2,0.0030877509510379548,0.012351003804151816,2.899220554851521
11,20,0.18181818181818185,0.10344827586206898,tecnologias atuais para o,2,0.0030877509510379548,0.012351003804151816,2.9060036940980467
12,4,0.3636363636363637,0.24615384615384614,cada parte,4,0.0061755019020759095,0.012351003804151816,2.904552470276158
13,35,0.2962962962962963,0.1176470588235294,sistema de posicionamento,2,0.0030877509510379548,0.009263252853113864,2.8991906762769357
14,30,0.14814814814814814,0.08333333333333333,chave para o,2,0.0030877509510379548,0.009263252853113864,2.902734328510909
15,27,0.12903225806451613,0.04651162790697674,técnicas de agricultura,2,0.0030877509510379548,0.009263252853113864,2.9042056265571765
16,40,0.2,0.061538461538461535,custos de produção,2,0.0030877509510379548,0.009263252853113864,2.763227351066695
17,26,0.6153846153846154,0.5714285714285714,aumentar a eficiência,2,0.0030877509510379548,0.009263252853113864,2.9059231735260465
18,41,0.4444444444444444,0.3333333333333333,redução dos custos,2,0.0030877509510379548,0.009263252853113864,2.8948219636333388
19,23,0.8,1.0,espaciais e temporais,2,0.0030877509510379548,0.009263252853113864,2.905861632166933
20,0,0.42105263157894735,0.2222222222222222,sistemas de posicionamento,2,0.0030877509510379548,0.009263252853113864,2.902151380209126
21,18,0.09302325581395347,0.05,precisão engloba o,2,0.0030877509510379548,0.009263252853113864,2.906028772571627
22,10,0.2,0.11428571428571427,é uma filosofia,2,0.0030877509510379548,0.009263252853113864,2.906698629470299
23,1,0.5454545454545454,0.5625,posicionamento global,3,0.004631626426556931,0.009263252853113862,2.902816517129933
24,13,0.35294117647058826,0.1875,pequenas áreas,3,0.004631626426556931,0.009263252853113862,2.9053998179241045
25,14,0.35294117647058826,0.17475728155339804,dentro de um,3,0.0029603095573863787,0.008880928672159137,2.686243080342051
26,11,0.3333333333333333,0.16289592760180996,um campo,6,0.004366382936985769,0.008732765873971537,2.726285856338418
27,31,0.2631578947368421,0.09615384615384616,do campo,5,0.003176376694967972,0.006352753389935944,2.6855517871342918
28,33,0.08,0.043478260869565216,relatam que,2,0.0030877509510379548,0.0061755019020759095,2.903516851570543
29,2,0.5,0.5,Esta mudança,2,0.0030877509510379548,0.0061755019020759095,2.8844597026617
30,37,0.5,0.5,campos inteiros,2,0.0030877509510379548,0.0061755019020759095,2.8947229390329863
31,34,0.4444444444444444,0.4,aplicação localizada,2,0.0030877509510379548,0.0061755019020759095,2.902548863490542
32,42,0.3636363636363637,0.2222222222222222,reduzir custos,2,0.0030877509510379548,0.0061755019020759095,2.892489733214457
33,22,0.5,0.5,modo adequado,2,0.0030877509510379548,0.0061755019020759095,2.905772901185211
34,12,0.18181818181818185,0.0784313725490196,insumos necessários,2,0.0030877509510379548,0.0061755019020759095,2.903574532932214
35,25,0.5,0.5,das mesmas,2,0.0030877509510379548,0.0061755019020759095,2.8960458301753755
36,19,0.26666666666666666,0.13333333333333333,tecnologias atuais,2,0.0030877509510379548,0.0061755019020759095,2.90596914608705
37,38,0.5714285714285714,0.4444444444444444,tomada de decisões,2,0.001973539704924253,0.005920619114772759,1.7831421690626772
38,3,0.3636363636363637,0.24615384615384614,cada vez,4,0.0029109219579905128,0.0058218439159810256,1.8474180278183931
39,17,0.26666666666666666,0.18181818181818185,baseado no,2,0.00238476192410089,0.00476952384820178,2.86804361575828
40,39,0.2222222222222222,0.07272727272727272,no tempo,2,0.00238476192410089,0.00476952384820178,2.852288258976839
41,32,0.07692307692307693,0.021739130434782608,considera que,2,0.00238476192410089,0.00476952384820178,2.844611715962782
42,29,0.5,0.4444444444444444,meio ambiente,2,0.001973539704924253,0.003947079409848506,1.829466255257833
