,Unnamed: 0,Cohesion_Dice,Cohesion_SCP,Conjuntos,Frequence,Tf_Idf,Tf_Idf vezes n,Score
0,15,0.07529411764705883,0.031418753068237604,argumentou que,16,0.0029726221397189698,0.0059452442794379395,2.630864292057122
1,8,0.6060606060606061,0.7692307692307693,artigos principais,20,0.002869805647358855,0.00573961129471771,2.606682147134638
2,31,0.2,0.0675422138836773,as pessoas,18,0.0021374493612617102,0.0042748987225234205,2.5891494811048896
3,93,0.1422924901185771,0.023471457548536655,na economia,18,0.0021374493612617102,0.0042748987225234205,2.4495178435251788
4,4,0.4705882352941176,0.43025210084033616,Adam Smith,16,0.0018999549877881862,0.0037999099755763725,2.0783416955630325
5,32,0.5882352941176471,0.6956521739130435,artigo principal,20,0.0017514914569955727,0.0035029829139911453,0.7525070795541919
6,366,0.5555555555555555,0.4128440366972477,ganhou o Prêmio Nobel de Economia,3,0.000557366651197307,0.0033441999071838423,2.627884536775541
7,381,0.410958904109589,0.2727272727272727,teoria dos ciclos reais dos negócios,3,0.000557366651197307,0.0033441999071838423,2.6254673179904042
8,316,0.6666666666666666,0.6428571428571429,taxas de juros,6,0.001114733302394614,0.0033441999071838423,2.6281194050322534
9,129,0.5714285714285714,0.5,bens e serviços,7,0.001004431976575599,0.003013295929726797,1.466429117146309
10,177,0.5925925925925926,0.7111111111111111,Grande Depressão,8,0.0014863110698594849,0.0029726221397189698,2.631139888794592
11,192,0.5217391304347826,0.33103448275862074,Principles of Political Economy,4,0.0007431555349297424,0.0029726221397189698,2.6240024653241214
12,161,0.4545454545454545,0.3105590062111801,década de 1930,5,0.0009289444186621783,0.002786833255986535,2.6313375886344064
13,34,0.11278195488721805,0.014298827849173848,que o,45,0.0013169456649652091,0.0026338913299304182,1.507273071697661
14,176,0.6086956521739131,0.7777777777777778,Political Economy,7,0.0013005221861270495,0.0026010443722540998,2.627089919719301
15,79,0.3037974683544304,0.1925133689839572,divisão do trabalho,6,0.0008609416942076566,0.0025828250826229696,2.3779281608869542
16,290,0.6206896551724138,0.81,Prêmio Nobel,9,0.0012914125413114846,0.002582825082622969,2.527533347948759
17,29,0.1935483870967742,0.05625,sua obra,9,0.0012914125413114846,0.002582825082622969,2.52773093715362
18,293,0.3829787234042553,0.3103448275862069,John Maynard,9,0.0012914125413114846,0.002582825082622969,2.5208670518137124
19,352,0.42105263157894735,0.22966507177033496,Prêmio Nobel de Economia,4,0.000573961129471771,0.002295844517887084,2.5843234063547853
20,207,0.2352941176470588,0.128,O Capital,8,0.001147922258943542,0.002295844517887084,2.6304183913058785
21,213,0.4864864864864865,0.32926829268292684,volume de O Capital,3,0.000557366651197307,0.002229466604789228,2.622616805146767
22,204,0.02631578947368421,0.013392857142857142,mais rápido que a,3,0.000557366651197307,0.002229466604789228,2.620416035104381
23,104,0.02992518703241895,0.01325478645066274,visto que,6,0.001114733302394614,0.002229466604789228,2.6071428755295654
24,246,0.6,0.75,Stanley Jevons,6,0.001114733302394614,0.002229466604789228,2.6218285117165663
25,383,0.5806451612903226,0.4736842105263158,ciclos reais dos negócios,3,0.000557366651197307,0.002229466604789228,2.625383963231654
26,380,0.2769230769230769,0.16981132075471694,teoria dos ciclos reais,3,0.000557366651197307,0.002229466604789228,2.625465735882816
27,365,0.4615384615384616,0.31764705882352945,ganhou o Prêmio Nobel,3,0.000557366651197307,0.002229466604789228,2.6278758835836737
28,72,0.2727272727272727,0.13793103448275862,John Locke,6,0.001114733302394614,0.002229466604789228,2.623736411778775
29,50,0.8,1.0,Philipp von Hörnigk,4,0.0007431555349297424,0.002229466604789228,2.620932518327622
30,191,0.4324324324324325,0.23703703703703705,Principles of Political,4,0.0007431555349297424,0.002229466604789228,2.623998484269453
31,222,0.3636363636363637,0.2325581395348837,valor de uso de uma coisa,2,0.0003715777674648713,0.002229466604789228,2.6174400649859257
32,338,0.4444444444444444,0.25,Universidade de Chicago,4,0.0007431555349297424,0.002229466604789228,2.6283403337283877
33,248,0.3278688524590164,0.2040816326530612,preço de um bem ou serviço,2,0.0003715777674648713,0.002229466604789228,2.627075472467356
34,279,0.7272727272727273,0.8,Ludwig von Mises,4,0.0007431555349297424,0.002229466604789228,2.629644576233274
35,111,0.6666666666666666,0.6410256410256411,Riqueza das Nações,5,0.0007174514118397137,0.002152354235519141,1.970822819909253
36,220,0.37735849056603776,0.22935779816513766,valor de uso,5,0.0007174514118397137,0.002152354235519141,0.8786813377085692
37,143,0.4081632653061225,0.2358490566037736,acumulação de capital,5,0.0007174514118397137,0.002152354235519141,2.6048963316023572
38,103,0.4545454545454545,0.3105590062111801,proprietários de terra,5,0.0007174514118397137,0.002152354235519141,2.5793752610731215
39,151,0.2916666666666667,0.1701388888888889,Karl Marx,7,0.001004431976575599,0.002008863953151198,2.423999373957779
40,185,0.4117647058823529,0.2722222222222222,David Ricardo,7,0.001004431976575599,0.002008863953151198,2.423937936313848
41,261,0.56,0.6125,Alfred Marshall,7,0.001004431976575599,0.002008863953151198,2.2513884146142593
42,120,0.2388059701492537,0.14035087719298245,Ele era um grande crítico,2,0.0003715777674648713,0.0018578888373243566,2.629847502344583
43,24,0.2564102564102564,0.1724137931034483,preço justo,5,0.0009289444186621783,0.0018578888373243566,2.6225710049066584
44,367,0.033126293995859216,0.016666666666666666,que a intervenção do governo,2,0.0003715777674648713,0.0018578888373243566,2.6276313306313406
45,162,0.43478260869565216,0.38461538461538464,Jeremy Bentham,5,0.0009289444186621783,0.0018578888373243566,2.623741268530515
46,114,0.2857142857142857,0.17391304347826084,pai da moderna economia política,2,0.0003715777674648713,0.0018578888373243566,2.6218050675320863
47,298,0.7619047619047619,0.7272727272727273,Economic Consequences of the Peace,2,0.0003715777674648713,0.0018578888373243566,2.622539987592504
48,221,0.0599250936329588,0.027164685908319185,valor de uso de uma,2,0.0003715777674648713,0.0018578888373243566,2.6174393297562086
49,136,0.4,0.26666666666666666,pode se dar ao luxo,2,0.0003715777674648713,0.0018578888373243566,2.6193279413294226
50,132,0.5,0.3636363636363637,rico ou pobre de acordo,2,0.0003715777674648713,0.0018578888373243566,2.619350873069357
51,41,0.1956521739130435,0.05869565217391305,seu livro,9,0.0009107251290310487,0.001821450258062097,2.3112250067174505
52,83,0.17543859649122806,0.09074410163339383,por sua vez,5,0.0005937359336838082,0.0017812078010514246,0.74257363362727
53,5,0.38461538461538464,0.2262443438914027,final do século,5,0.0005937359336838082,0.0017812078010514246,1.025869577951959
54,27,0.21505376344086025,0.06377551020408162,custos de produção,5,0.0005937359336838082,0.0017812078010514246,0.592232574991638
55,152,0.25396825396825395,0.1306122448979592,teoria do valor-trabalho,4,0.000573961129471771,0.0017218833884153132,2.024424960762176
56,20,0.64,0.6153846153846154,Tomás de Aquino,4,0.000573961129471771,0.0017218833884153132,2.5779786256684187
57,153,0.3076923076923077,0.1807909604519774,oferta e demanda,4,0.000573961129471771,0.0017218833884153132,0.8439327568496711
58,249,0.4444444444444444,0.3333333333333333,bem ou serviço,4,0.000573961129471771,0.0017218833884153132,2.5790366178899493
59,348,0.4615384615384616,0.3636363636363637,Paul Samuelson,6,0.0008609416942076566,0.0017218833884153132,2.5253113925560617
60,364,0.42857142857142855,0.2903225806451613,ganhou o Prêmio,3,0.000557366651197307,0.0016720999535919212,2.6278715653020885
61,42,0.04395604395604396,0.01867219917012448,Ele era um,3,0.000557366651197307,0.0016720999535919212,2.630214896173758
62,25,0.020869565217391303,0.009868421052631578,necessário para a,3,0.000557366651197307,0.0016720999535919212,2.6277263369606496
63,167,0.5714285714285714,0.4615384615384616,cálculo da felicidade,3,0.000557366651197307,0.0016720999535919212,2.620684912730877
64,390,0.08,0.0313588850174216,defensores da economia,3,0.000557366651197307,0.0016720999535919212,2.6207027909722096
65,262,0.75,0.8571428571428571,Eugen von Böhm-Bawerk,3,0.000557366651197307,0.0016720999535919212,2.6239073218937987
66,320,0.3428571428571429,0.16363636363636366,necessidade de ação,3,0.000557366651197307,0.0016720999535919212,2.630317925041117
67,212,0.18181818181818185,0.08181818181818183,volume de O,3,0.000557366651197307,0.0016720999535919212,2.6226156888890038
68,77,0.35294117647058826,0.24,Consequences of the,3,0.000557366651197307,0.0016720999535919212,2.628862467581564
69,327,0.3157894736842105,0.16822429906542055,década de 1920,3,0.000557366651197307,0.0016720999535919212,2.6298508044955815
70,183,0.3333333333333333,0.1855670103092784,lei de Say,3,0.000557366651197307,0.0016720999535919212,2.622616739077276
71,201,0.04979253112033195,0.013196480938416423,levando a um,3,0.000557366651197307,0.0016720999535919212,2.6287716458626544
72,358,0.3157894736842105,0.1875,custos de transação,3,0.000557366651197307,0.0016720999535919212,2.624912148625233
73,379,0.19672131147540986,0.1153846153846154,teoria dos ciclos,3,0.000557366651197307,0.0016720999535919212,2.6254649448267218
74,324,0.8,1.0,Franklin Delano Roosevelt,3,0.000557366651197307,0.0016720999535919212,2.627523231665107
75,2,0.2641509433962264,0.10208333333333333,pensamento econômico,7,0.0008312303071573315,0.001662460614314663,1.4615678385975424
76,216,0.2456140350877193,0.14583333333333334,Theory of,7,0.0008312303071573315,0.001662460614314663,2.429003019275771
77,19,0.07551487414187644,0.006267986646713479,e o,33,0.0008165221558289758,0.0016330443116579511,0.4475834856626819
78,28,0.09144542772861357,0.016152346376226975,com a,31,0.0007670359645666134,0.0015340719291332269,0.41209067426612944
79,124,0.2857142857142857,0.17647058823529413,sistema de liberdade natural,2,0.0003715777674648713,0.0014863110698594849,2.627291543313113
80,296,0.6666666666666666,1.0,Bretton Woods,4,0.0007431555349297424,0.0014863110698594849,2.6310176633897435
81,224,0.4137931034482759,0.2857142857142857,uso de uma coisa,2,0.0003715777674648713,0.0014863110698594849,2.6174274473032635
82,332,0.2608695652173913,0.11428571428571427,preço dos produtos finais,2,0.0003715777674648713,0.0014863110698594849,2.6225723539860724
83,96,0.025806451612903226,0.012526096033402923,Ele acreditava que o,2,0.0003715777674648713,0.0014863110698594849,2.6267477551568406
84,119,0.14814814814814814,0.0718562874251497,Ele era um grande,2,0.0003715777674648713,0.0014863110698594849,2.629846198397912
85,228,0.5217391304347826,0.4,tempo de trabalho socialmente,2,0.0003715777674648713,0.0014863110698594849,2.6176808526940083
86,100,0.31578947368421056,0.2,todas as classes sociais,2,0.0003715777674648713,0.0014863110698594849,2.624259461171278
87,189,0.8,0.8571428571428572,Parlamento do Reino Unido,2,0.0003715777674648713,0.0014863110698594849,2.622827974243694
88,289,0.4137931034482759,0.2857142857142857,premiado com o Prêmio,2,0.0003715777674648713,0.0014863110698594849,2.6286686949434626
89,360,0.8,0.8571428571428572,quem deveria se mudar,2,0.0003715777674648713,0.0014863110698594849,2.6249461937197913
90,210,0.4,0.26666666666666666,Friedrich Engels,4,0.0007431555349297424,0.0014863110698594849,2.622712300100583
91,353,0.42105263157894735,0.2857142857142857,Kenneth Arrow,4,0.0007431555349297424,0.0014863110698594849,2.6244315063036416
92,286,0.08633093525179858,0.041379310344827586,via a economia como,2,0.0003715777674648713,0.0014863110698594849,2.6288722785906478
93,78,0.6153846153846154,0.8,Dudley North,4,0.0007431555349297424,0.0014863110698594849,2.622174789615324
94,171,0.017569546120058566,0.0075187969924812035,mais do que a,2,0.0003715777674648713,0.0014863110698594849,2.625419652392103
95,14,0.0898876404494382,0.011904761904761904,ele argumentou,4,0.0007431555349297424,0.0014863110698594849,2.624166911461123
96,205,0.3870967741935484,0.2,rápido que a população,2,0.0003715777674648713,0.0014863110698594849,2.6202323122829543
97,179,0.2,0.1016949152542373,mas no longo prazo,2,0.0003715777674648713,0.0014863110698594849,2.630441385116208
98,347,0.3809523809523809,0.2222222222222222,Kenneth Galbraith,4,0.0007431555349297424,0.0014863110698594849,2.62462403186494
99,245,0.5714285714285714,0.6666666666666666,Carl Menger,4,0.0007431555349297424,0.0014863110698594849,2.6242747842331653
100,323,0.3636363636363637,0.2142857142857143,Presidente dos Estados Unidos,2,0.0003715777674648713,0.0014863110698594849,2.6292779949034344
101,241,0.5555555555555556,0.5952380952380952,Guerra Mundial,5,0.0007174514118397137,0.0014349028236794275,0.46437054694478513
102,186,0.38461538461538464,0.3125,Stuart Mill,5,0.0007174514118397137,0.0014349028236794275,1.4328414599750496
103,235,0.3225806451612903,0.15151515151515152,ciclos econômicos,5,0.0007174514118397137,0.0014349028236794275,2.455053342644413
104,187,0.4166666666666667,0.2777777777777778,Thomas Malthus,5,0.0007174514118397137,0.0014349028236794275,2.608554219258497
105,303,0.4,0.3333333333333333,Teoria Geral,5,0.0007174514118397137,0.0014349028236794275,2.447060521719014
106,139,0.08205128205128205,0.012563800549666274,economia de mercado,4,0.00047498874694704656,0.0014249662408411395,1.4116136972993516
107,156,0.42424242424242425,0.3684210526315789,século XIX,7,0.0007083417670241489,0.0014166835340482975,0.5049095910045296
108,26,0.6206896551724138,0.8181818181818182,longo prazo,9,0.0006880372683504188,0.0013760745367008376,0.6904280052746635
109,130,0.15584415584415584,0.04166666666666666,quantidade de trabalho,3,0.0004304708471038282,0.0012914125413114848,2.50806363086605
110,74,0.32432432432432434,0.1956521739130435,direitos de propriedade,3,0.0004304708471038282,0.0012914125413114848,0.22604469828910492
111,272,0.5,0.4,alocação de recursos,3,0.0004304708471038282,0.0012914125413114848,1.7614865783431244
112,148,0.020338983050847456,0.008430913348946136,dos bens e,3,0.0004304708471038282,0.0012914125413114848,2.5103248850317814
113,16,0.030303030303030307,0.01157556270096463,o que significa,3,0.0004304708471038282,0.0012914125413114848,2.5132155971811665
114,355,0.3636363636363637,0.16071428571428573,Escola de Chicago,3,0.0004304708471038282,0.0012914125413114848,2.5138904589772757
115,118,0.009188361408882085,0.004626060138781804,a criação de,3,0.0004304708471038282,0.0012914125413114848,0.10784665015893433
116,90,0.2790697674418605,0.1592920353982301,começo do século,3,0.0004304708471038282,0.0012914125413114848,0.974781845642683
117,80,0.010572687224669605,0.0053285968028419185,o fluxo de,3,0.0004304708471038282,0.0012914125413114848,0.7563135704984406
118,98,0.1875,0.09,ao invés,6,0.000607150086020699,0.001214300172041398,1.4391573308834518
119,81,0.3809523809523809,0.26666666666666666,David Hume,4,0.000573961129471771,0.001147922258943542,2.580087566822209
120,247,0.1875,0.10256410256410256,preço de um bem,2,0.0002869805647358855,0.001147922258943542,1.362574759811852
121,375,0.42105263157894735,0.3636363636363637,Paul Krugman,4,0.000573961129471771,0.001147922258943542,2.335119747590918
122,307,0.8571428571428572,1.0,Juro e da Moeda,2,0.0002869805647358855,0.001147922258943542,2.328520749989565
123,371,0.3333333333333333,0.25,bem-estar social,4,0.000573961129471771,0.001147922258943542,2.5278445142015498
124,76,0.020202020202020204,0.010309278350515464,argumentando que,4,0.000573961129471771,0.001147922258943542,2.5867113095883894
125,35,0.2222222222222222,0.08333333333333333,comércio internacional,4,0.000573961129471771,0.001147922258943542,1.5434652774937012
126,36,0.4,0.26666666666666666,outras palavras,4,0.000573961129471771,0.001147922258943542,2.328264118197399
127,250,0.3809523809523809,0.22857142857142854,utilidade marginal,4,0.000573961129471771,0.001147922258943542,2.0213478277862373
128,277,0.4444444444444444,0.4,Escola Austríaca,4,0.000573961129471771,0.001147922258943542,2.5802461267030847
129,65,0.2608695652173913,0.09375,mundo natural,3,0.000557366651197307,0.001114733302394614,2.626913997210255
130,244,0.5454545454545454,0.6,Léon Walras,3,0.000557366651197307,0.001114733302394614,2.620951432706698
131,382,0.2608695652173913,0.09090909090909093,ciclos reais,3,0.000557366651197307,0.001114733302394614,2.625382381381436
132,33,0.6,0.75,Idade Média,3,0.000557366651197307,0.001114733302394614,1.378953911962413
133,356,0.5,0.5,Ronald Coase,3,0.000557366651197307,0.001114733302394614,2.6246426261859503
134,40,0.375,0.25,Thomas Mun,3,0.000557366651197307,0.001114733302394614,2.621012164431654
135,158,0.24,0.09375,crises econômicas,3,0.000557366651197307,0.001114733302394614,2.6281357074933336
136,182,0.15384615384615385,0.05806451612903226,Os defensores,3,0.000557366651197307,0.001114733302394614,2.6294780228526715
137,350,0.1176470588235294,0.0313588850174216,teoria macroeconômica,3,0.000557366651197307,0.001114733302394614,2.630507808597482
138,172,0.2608695652173913,0.10714285714285714,Jean-Baptiste Say,3,0.000557366651197307,0.001114733302394614,2.6207657833321267
139,37,0.6666666666666666,1.0,balança comercial,3,0.000557366651197307,0.001114733302394614,2.623394530901611
140,87,0.027149321266968326,0.010514018691588784,um francês,3,0.000557366651197307,0.001114733302394614,2.6273146661325555
141,330,0.35294117647058826,0.2727272727272727,produtos finais,3,0.000557366651197307,0.001114733302394614,2.622614669654526
142,363,0.11320754716981132,0.04891304347826087,Ele ganhou,3,0.000557366651197307,0.001114733302394614,2.6278603140302446
143,116,0.5454545454545454,0.6,Edmund Burke,3,0.000557366651197307,0.001114733302394614,2.6219334560421084
144,370,0.6666666666666666,1.0,Amartya Sen,3,0.000557366651197307,0.001114733302394614,2.62443602788478
145,122,0.2727272727272727,0.10227272727272728,interesse próprio,3,0.000557366651197307,0.001114733302394614,2.62585127879013
146,53,0.4615384615384616,0.375,Jean-Baptiste Colbert,3,0.000557366651197307,0.001114733302394614,2.6210506553968407
147,281,0.42857142857142855,0.375,Thorstein Veblen,3,0.000557366651197307,0.001114733302394614,2.6266168702021613
148,126,0.1176470588235294,0.019780219780219783,Smith acreditava,3,0.000557366651197307,0.001114733302394614,2.6204070553447925
149,127,0.10909090909090907,0.061224489795918366,mercado competitivo,3,0.000557366651197307,0.001114733302394614,2.6285731262702376
150,362,0.4,0.3333333333333333,Milton Friedman,3,0.000557366651197307,0.001114733302394614,2.6250316605048445
151,373,0.4,0.2571428571428571,Joseph Stiglitz,3,0.000557366651197307,0.001114733302394614,2.624951719096278
152,117,0.3333333333333333,0.20454545454545456,Revolução Industrial,3,0.000557366651197307,0.001114733302394614,2.497951694235397
153,56,0.35294117647058826,0.2727272727272727,Revolução Francesa,3,0.000557366651197307,0.001114733302394614,2.6236760025664325
154,264,0.3,0.15,economista austríaco,3,0.000557366651197307,0.001114733302394614,2.624911313225422
155,291,0.6666666666666666,1.0,Quatorze Pontos,3,0.000557366651197307,0.001114733302394614,2.6228141407336905
156,275,0.6,0.75,Arthur Cecil,3,0.000557366651197307,0.001114733302394614,2.624944975166033
157,343,0.3333333333333333,0.18,New School,3,0.000557366651197307,0.001114733302394614,2.6220571263889254
158,206,0.5454545454545454,0.6,Manifesto Comunista,3,0.000557366651197307,0.001114733302394614,2.621432565137673
159,335,0.6666666666666666,1.0,American Way,3,0.000557366651197307,0.001114733302394614,2.622935436071372
160,255,0.5,0.5,Vilfredo Pareto,3,0.000557366651197307,0.001114733302394614,2.622005466075325
161,226,0.013445378151260505,0.0053835800807537,trabalho era a,2,0.0003715777674648713,0.0011147333023946136,2.6249785603766393
162,225,0.17391304347826084,0.04733727810650888,valor de troca,2,0.0003715777674648713,0.0011147333023946136,2.617837147418451
163,38,0.6666666666666666,0.6666666666666666,excedente de exportações,2,0.0003715777674648713,0.0011147333023946136,2.6231592566072366
164,227,0.1111111111111111,0.03225806451612903,tempo de trabalho,2,0.0003715777674648713,0.0011147333023946136,2.617677774274753
165,334,0.13114754098360654,0.0326530612244898,preço do capital,2,0.0003715777674648713,0.0011147333023946136,2.6225045373558866
166,52,0.2857142857142857,0.18181818181818185,época na qual,2,0.0003715777674648713,0.0011147333023946136,2.6235504222767263
167,337,0.32,0.17391304347826084,Após a guerra,2,0.0003715777674648713,0.0011147333023946136,2.6265201050359583
168,47,0.011544011544011544,0.005822416302765648,para reduzir a,2,0.0003715777674648713,0.0011147333023946136,2.6301248665123436
169,223,0.03319502074688797,0.007220216606498195,uso de uma,2,0.0003715777674648713,0.0011147333023946136,2.6174267130943356
170,292,0.4705882352941176,0.2962962962962963,conferência de Versalhes,2,0.0003715777674648713,0.0011147333023946136,2.6225190204636197
171,389,0.052980132450331126,0.027586206896551724,manipular a economia,2,0.0003715777674648713,0.0011147333023946136,2.621300305274926
172,48,0.21052631578947367,0.1,exportação de bens,2,0.0003715777674648713,0.0011147333023946136,2.6208764738799117
173,388,0.062015503875968984,0.0215633423180593,A economia normativa,2,0.0003715777674648713,0.0011147333023946136,2.62096929110729
174,217,0.8,1.0,compram e vendem,2,0.0003715777674648713,0.0011147333023946136,2.618347613342348
175,106,0.2222222222222222,0.13333333333333333,obra mais conhecida,2,0.0003715777674648713,0.0011147333023946136,2.624723150317477
176,287,0.5,0.4,problema do cálculo,2,0.0003715777674648713,0.0011147333023946136,2.6223141855731558
177,331,0.16326530612244894,0.06106870229007633,preço dos produtos,2,0.0003715777674648713,0.0011147333023946136,2.622570623443619
178,254,0.009122006841505131,0.004326663061114115,A escola de,2,0.0003715777674648713,0.0011147333023946136,2.6190364198824754
179,276,0.6153846153846154,0.5714285714285714,focava no lado,2,0.0003715777674648713,0.0011147333023946136,2.621250266285685
180,274,0.0365296803652968,0.016597510373443983,matemática como uma,2,0.0003715777674648713,0.0011147333023946136,2.621152328234854
181,270,0.1038961038961039,0.04938271604938271,veio a ser,2,0.0003715777674648713,0.0011147333023946136,1.6588953198896963
182,269,0.25,0.0851063829787234,nível de utilidade,2,0.0003715777674648713,0.0011147333023946136,2.6210057704120566
183,267,0.1951219512195122,0.10810810810810813,preço dos cogumelos,2,0.0003715777674648713,0.0011147333023946136,2.620538685461749
184,282,0.2962962962962963,0.14285714285714285,Friedrich von Hayek,2,0.0003715777674648713,0.0011147333023946136,2.6227777706964517
185,283,0.06611570247933883,0.034782608695652174,pois ele é,2,0.0003715777674648713,0.0011147333023946136,2.628246996641891
186,263,0.4,0.2857142857142857,Friedrich von Wieser,2,0.0003715777674648713,0.0011147333023946136,2.6236950783331103
187,317,0.19047619047619047,0.045454545454545456,quantidade de dinheiro,2,0.0003715777674648713,0.0011147333023946136,2.6240058846075254
188,258,0.8,1.0,Elements of Pure,2,0.0003715777674648713,0.0011147333023946136,2.6207393590935717
189,256,0.3636363636363637,0.25,desenvolveu as teorias,2,0.0003715777674648713,0.0011147333023946136,2.619141822634998
190,318,0.3478260869565217,0.2352941176470588,produto e emprego,2,0.0003715777674648713,0.0011147333023946136,2.630907012723768
191,329,0.13793103448275862,0.05333333333333334,Keynes em Cambridge,2,0.0003715777674648713,0.0011147333023946136,2.623582534114219
192,252,0.24242424242424246,0.10810810810810813,corrente de pensamento,2,0.0003715777674648713,0.0011147333023946136,2.6282381614723898
193,251,0.14035087719298245,0.06349206349206349,preferências das pessoas,2,0.0003715777674648713,0.0011147333023946136,2.62089742635676
194,394,0.8,1.0,incentivaria ou inibiria,2,0.0003715777674648713,0.0011147333023946136,2.619225836532589
195,23,0.6153846153846154,0.5714285714285714,Colônia e Paris,2,0.0003715777674648713,0.0011147333023946136,2.6223858963998645
196,11,0.11940298507462685,0.059701492537313425,especialização do trabalho,2,0.0003715777674648713,0.0011147333023946136,2.6291504831182566
197,107,0.013937282229965157,0.0059479553903345715,terra é a,2,0.0003715777674648713,0.0011147333023946136,2.629139935371217
198,288,0.06451612903225806,0.01680672268907563,tornou-se um dos,2,0.0003715777674648713,0.0011147333023946136,2.6277170432891173
199,322,0.3636363636363637,0.21052631578947367,Presidente dos Estados,2,0.0003715777674648713,0.0011147333023946136,2.6292746730760768
200,397,0.2857142857142857,0.18181818181818185,sociedade de massas,2,0.0003715777674648713,0.0011147333023946136,2.6170940857720995
201,234,0.6666666666666666,0.6666666666666666,altos e baixos,2,0.0003715777674648713,0.0011147333023946136,2.618432170437168
202,9,0.20512820512820512,0.060606060606060615,parte da filosofia,2,0.0003715777674648713,0.0011147333023946136,2.629883123527377
203,54,0.8,1.0,Ministro das Finanças,2,0.0003715777674648713,0.0011147333023946136,2.623395197846604
204,57,0.1509433962264151,0.06611570247933883,algumas de suas,2,0.0003715777674648713,0.0011147333023946136,2.626153206967265
205,203,0.03433476394849785,0.016736401673640166,levaria a um,2,0.0003715777674648713,0.0011147333023946136,2.6260860950556024
206,173,0.3076923076923077,0.18604651162790695,Lei de Say,2,0.0003715777674648713,0.0011147333023946136,2.621140180074355
207,133,0.3809523809523809,0.26666666666666666,pobre de acordo,2,0.0003715777674648713,0.0011147333023946136,2.6193424296486985
208,75,0.16326530612244894,0.09302325581395347,Em suas palavras,2,0.0003715777674648713,0.0011147333023946136,2.630291821042677
209,166,0.12903225806451613,0.0326530612244898,teoria da utilidade,2,0.0003715777674648713,0.0011147333023946136,2.6247550302597658
210,351,0.7272727272727273,0.8,curva de Phillips,2,0.0003715777674648713,0.0011147333023946136,2.628633161906583
211,159,0.5,0.4,tarde se tornaria,2,0.0003715777674648713,0.0011147333023946136,2.6215967730176235
212,157,0.26666666666666666,0.13793103448275862,combater o desemprego,2,0.0003715777674648713,0.0011147333023946136,2.6289620103895053
213,115,0.16666666666666666,0.08888888888888889,moderna economia política,2,0.0003715777674648713,0.0011147333023946136,2.6217969083258836
214,302,0.14035087719298245,0.0784313725490196,nova ordem econômica,2,0.0003715777674648713,0.0011147333023946136,2.6248015504500004
215,357,0.22857142857142854,0.07017543859649122,existência de custos,2,0.0003715777674648713,0.0011147333023946136,2.6257498828173818
216,97,0.2,0.09523809523809523,comércio e indústria,2,0.0003715777674648713,0.0011147333023946136,2.6229238087139093
217,374,0.6153846153846154,0.5333333333333333,ausência de imperfeições,2,0.0003715777674648713,0.0011147333023946136,2.6244031869731024
218,147,0.6666666666666666,0.6666666666666666,erguer e manter,2,0.0003715777674648713,0.0011147333023946136,2.618119975575247
219,146,0.16326530612244894,0.031746031746031744,acreditava que havia,2,0.0003715777674648713,0.0011147333023946136,2.629017867972934
220,3,0.1951219512195122,0.08080808080808081,pode ser dividida,2,0.0003715777674648713,0.0011147333023946136,2.630207783243699
221,88,0.17777777777777778,0.07207207207207207,política do laissez-faire,2,0.0003715777674648713,0.0011147333023946136,2.6305331797762905
222,123,0.21621621621621626,0.0975609756097561,sistema de liberdade,2,0.0003715777674648713,0.0011147333023946136,2.627286662366601
223,141,0.32,0.14814814814814814,Quando a quantidade,2,0.0003715777674648713,0.0011147333023946136,2.6187092720361713
224,361,0.013114754098360656,0.0040404040404040395,um governo que,2,0.0003715777674648713,0.0011147333023946136,1.6575722835923707
225,138,0.0140597539543058,0.0021436227224008574,e que não,2,0.0003715777674648713,0.0011147333023946136,2.6282354095953404
226,137,0.7272727272727273,0.8,dar ao luxo,2,0.0003715777674648713,0.0011147333023946136,2.6193194876943235
227,89,0.3478260869565217,0.21052631578947367,estilo de vida,2,0.0003715777674648713,0.0011147333023946136,1.6552035389386637
228,131,0.6153846153846154,0.5714285714285714,rico ou pobre,2,0.0003715777674648713,0.0011147333023946136,2.6193490015583274
229,135,0.24242424242424246,0.14545454545454545,pode se dar,2,0.0003715777674648713,0.0011147333023946136,2.61932607359159
230,170,0.4,0.2857142857142857,interpessoais de utilidade,2,0.0003715777674648713,0.0011147333023946136,2.629493661297279
231,169,0.7272727272727273,0.8,cadeiras de rodas,2,0.0003715777674648713,0.0011147333023946136,2.62009308554965
232,134,0.047058823529411764,0.01646090534979424,ele pode se,2,0.0003715777674648713,0.0011147333023946136,2.6193293654116983
233,342,0.5,0.4,veio do Meio-Oeste,2,0.0003715777674648713,0.0011147333023946136,2.6231278198520336
234,344,0.26666666666666666,0.12121212121212123,época de grandes,2,0.0003715777674648713,0.0011147333023946136,2.626095979601584
235,60,0.4444444444444444,0.3076923076923077,incluindo a descoberta,2,0.0003715777674648713,0.0011147333023946136,2.6232251505719657
236,188,0.7272727272727273,0.8,Parlamento do Reino,2,0.0003715777674648713,0.0011147333023946136,2.6228232597147825
237,300,0.5333333333333333,0.4444444444444444,começou sua carreira,2,0.0003715777674648713,0.0011147333023946136,2.627520930403629
238,175,0.5333333333333333,0.4444444444444444,ajudou a popularizar,2,0.0003715777674648713,0.0011147333023946136,2.6257044469860777
239,64,0.8,1.0,inércia e gravidade,2,0.0003715777674648713,0.0011147333023946136,2.630449359934576
240,99,0.25806451612903225,0.10256410256410256,fluxo de renda,2,0.0003715777674648713,0.0011147333023946136,2.622573688687955
241,398,0.05925925925925926,0.027777777777777776,economia como ciência,2,0.0003715777674648713,0.0011147333023946136,2.6174079102582954
242,66,0.013745704467353952,0.005843681519357195,humana e a,2,0.0003715777674648713,0.0011147333023946136,2.628963830120445
243,295,0.6153846153846154,0.5714285714285714,acordos de Bretton,2,0.0003715777674648713,0.0011147333023946136,2.6235165011005295
244,368,0.2,0.0898876404494382,intervenção do governo,2,0.0003715777674648713,0.0011147333023946136,2.6276152273840747
245,346,0.030075187969924814,0.015384615384615384,A justificativa para,2,0.0003715777674648713,0.0011147333023946136,2.624145139948637
246,67,0.1,0.032,competição de mercado,2,0.0003715777674648713,0.0011147333023946136,2.627244340217142
247,197,0.18604651162790695,0.07476635514018691,preço do trigo,2,0.0003715777674648713,0.0011147333023946136,2.622348083128925
248,198,0.21621621621621626,0.11594202898550725,rendas da terra,2,0.0003715777674648713,0.0011147333023946136,2.6223651894708233
249,1,0.22857142857142854,0.09302325581395347,história do pensamento,2,0.0003715777674648713,0.0011147333023946136,2.630210885257925
250,376,0.21052631578947367,0.0784313725490196,partir da década,2,0.0003715777674648713,0.0011147333023946136,2.625325781574921
251,178,0.1568627450980392,0.07407407407407407,mas no longo,2,0.0003715777674648713,0.0011147333023946136,2.6304374765381233
252,113,0.6666666666666666,0.6666666666666666,pai da moderna,2,0.0003715777674648713,0.0011147333023946136,2.6218029615240885
253,109,0.012422360248447204,0.005818181818181818,a classe dos,2,0.0003715777674648713,0.0011147333023946136,2.6221974920730537
254,174,0.42424242424242425,0.3684210526315789,século XX,7,0.0005351400976058813,0.0010702801952117626,0.41768163774353273
255,202,0.1643835616438356,0.07377049180327869,fatores de produção,3,0.000356241560210285,0.0010687246806308551,0.6417999566790508
256,82,0.028985507246376805,0.014814814814814815,fato de que,3,0.000356241560210285,0.0010687246806308551,0.5289464988704161
257,17,0.4,0.262987012987013,No entanto,9,0.0005300377167506123,0.0010600754335012249,0.2603510041099283
258,44,0.4761904761904762,0.4166666666666667,De acordo,5,0.0005059584050172493,0.0010119168100344985,1.5821076988586422
259,85,0.6666666666666666,1.0,Estados Unidos,9,0.00046534940766978914,0.0009306988153395783,-0.011614114081336481
260,314,0.009174311926605505,0.003469545104086353,a taxa de,3,0.0003035750430103495,0.0009107251290310485,0.6368030643668372
261,304,0.6153846153846154,0.5714285714285714,Geral do Emprego,2,0.0002869805647358855,0.0008609416942076566,2.328495454004008
262,273,0.2962962962962963,0.11594202898550725,Universidade de Cambridge,2,0.0002869805647358855,0.0008609416942076566,2.330606024886978
263,112,0.012307692307692308,0.006211180124223602,o pai da,2,0.0002869805647358855,0.0008609416942076566,1.6706051982685575
264,84,0.4615384615384616,0.375,fluxo circular,3,0.0004304708471038282,0.0008609416942076566,2.5174953050692115
265,260,0.10810810810810813,0.05882352941176471,falhas de mercado,2,0.0002869805647358855,0.0008609416942076566,2.32878924221126
266,257,0.08888888888888889,0.016,equilíbrio de mercado,2,0.0002869805647358855,0.0008609416942076566,1.756790707845668
267,142,0.2222222222222222,0.14285714285714285,demanda efetiva,3,0.0004304708471038282,0.0008609416942076566,2.512225199360398
268,155,0.09375,0.015306122448979591,livre mercado,3,0.0004304708471038282,0.0008609416942076566,0.6492814966670524
269,73,0.10666666666666667,0.03980099502487562,devido a sua,2,0.0002869805647358855,0.0008609416942076566,0.3681017101759359
270,306,0.027303754266211604,0.013937282229965157,Juro e da,2,0.0002869805647358855,0.0008609416942076566,2.3285135930783314
271,378,0.18604651162790695,0.04878048780487805,nova economia clássica,2,0.0002869805647358855,0.0008609416942076566,2.3310320310132355
272,333,0.16666666666666666,0.0851063829787234,determina o preço,2,0.0002869805647358855,0.0008609416942076566,2.3247244381734227
273,7,0.5333333333333333,0.42105263157894735,Pensamento econômico antigo,2,0.0002869805647358855,0.0008609416942076566,1.7513848060001957
274,310,0.049180327868852465,0.02586206896551724,economia ortodoxa,3,0.0004304708471038282,0.0008609416942076566,2.1347668490901452
275,45,0.15267175572519084,0.09009009009009007,acordo com,10,0.0003945976474797416,0.0007891952949594831,0.28595408451286775
276,309,0.6666666666666666,1.0,Terça-Feira Negra,2,0.0003715777674648713,0.0007431555349297424,2.6251920067900953
277,308,0.2857142857142857,0.125,General Theory,2,0.0003715777674648713,0.0007431555349297424,2.627328727795724
278,396,0.19047619047619047,0.045454545454545456,filosofia ética,2,0.0003715777674648713,0.0007431555349297424,2.6178899136768807
279,384,0.3636363636363637,0.2857142857142857,estabilização macroeconômica,2,0.0003715777674648713,0.0007431555349297424,2.6244821573349335
280,312,0.14814814814814814,0.031746031746031744,oferta monetária,2,0.0003715777674648713,0.0007431555349297424,2.6302564369364676
281,313,0.4,0.3333333333333333,efeito multiplicador,2,0.0003715777674648713,0.0007431555349297424,2.6243442685420124
282,369,0.2222222222222222,0.14285714285714285,renda permanente,2,0.0003715777674648713,0.0007431555349297424,2.623736258255718
283,372,0.3636363636363637,0.2,expectativas racionais,2,0.0003715777674648713,0.0007431555349297424,2.6270397380648327
284,359,0.2222222222222222,0.14285714285714285,quem deveria,2,0.0003715777674648713,0.0007431555349297424,2.624936107607928
285,377,0.14285714285714285,0.02424242424242424,escola neoclássica,2,0.0003715777674648713,0.0007431555349297424,2.6262193485001726
286,341,0.12121212121212123,0.06896551724137931,John Dewey,2,0.0003715777674648713,0.0007431555349297424,2.622787565396726
287,340,0.3636363636363637,0.2222222222222222,Adolf Berle,2,0.0003715777674648713,0.0007431555349297424,2.6242029440967984
288,339,0.5,0.4444444444444444,Meio-Oeste americano,2,0.0003715777674648713,0.0007431555349297424,2.623261667227228
289,386,0.2,0.08888888888888889,escola austríaca,2,0.0003715777674648713,0.0007431555349297424,2.623701475659852
290,336,0.2,0.08888888888888889,Até então,2,0.0003715777674648713,0.0007431555349297424,2.6278201834231907
291,387,0.3636363636363637,0.2222222222222222,variáveis macroeconômicas,2,0.0003715777674648713,0.0007431555349297424,2.621354059515421
292,326,0.3076923076923077,0.14285714285714285,Banco Mundial,2,0.0003715777674648713,0.0007431555349297424,2.350087071749762
293,325,0.6666666666666666,1.0,York Times,2,0.0003715777674648713,0.0007431555349297424,2.350555711921997
294,321,0.25,0.16666666666666666,gastos deficitários,2,0.0003715777674648713,0.0007431555349297424,2.624463351179833
295,391,0.010204081632653059,0.005154639175257732,defendem que,2,0.0003715777674648713,0.0007431555349297424,2.622855810373767
296,319,0.5,0.5,crédito fácil,2,0.0003715777674648713,0.0007431555349297424,2.6303529457543897
297,392,0.26666666666666666,0.13333333333333333,Assim sendo,2,0.0003715777674648713,0.0007431555349297424,2.6198021226930712
298,393,0.5,0.4444444444444444,unidades monetárias,2,0.0003715777674648713,0.0007431555349297424,2.6192420304946173
299,395,0.3333333333333333,0.19047619047619047,países ocidentais,2,0.0003715777674648713,0.0007431555349297424,0.44522223803153316
300,315,0.07692307692307693,0.015151515151515154,dizia Keynes,2,0.0003715777674648713,0.0007431555349297424,2.624379687204662
301,0,0.2,0.125,pensamento económico,2,0.0003715777674648713,0.0007431555349297424,2.6301970087923676
302,399,0.03333333333333333,0.017241379310344827,economia participativa,2,0.0003715777674648713,0.0007431555349297424,2.6137384996908097
303,301,0.14814814814814814,0.060606060606060615,governo britânico,2,0.0003715777674648713,0.0007431555349297424,2.6222951643640005
304,121,0.14814814814814814,0.04,grande crítico,2,0.0003715777674648713,0.0007431555349297424,2.629837024600318
305,92,0.3333333333333333,0.16,corpo humano,2,0.0003715777674648713,0.0007431555349297424,2.6305460596672803
306,94,0.5,0.5,François Quesnay,2,0.0003715777674648713,0.0007431555349297424,2.623143558959034
307,95,0.06557377049180327,0.006688963210702341,Ele acreditava,2,0.0003715777674648713,0.0007431555349297424,2.626738057447294
308,101,0.2,0.05,classes sociais,2,0.0003715777674648713,0.0007431555349297424,2.6242533933537837
309,105,0.4444444444444444,0.4,Jacques Turgot,2,0.0003715777674648713,0.0007431555349297424,2.622896316642283
310,108,0.3636363636363637,0.2222222222222222,única fonte,2,0.0003715777674648713,0.0007431555349297424,2.626500152915436
311,110,0.07407407407407407,0.014492753623188406,Ele argumentava,2,0.0003715777674648713,0.0007431555349297424,2.6247759100542156
312,125,0.2352941176470588,0.07142857142857142,liberdade natural,2,0.0003715777674648713,0.0007431555349297424,2.6272894964480598
313,193,0.035398230088495575,0.01834862385321101,A queda,2,0.0003715777674648713,0.0007431555349297424,2.6281885535978056
314,128,0.15384615384615385,0.09090909090909093,verdadeiro valor,2,0.0003715777674648713,0.0007431555349297424,2.61931251866515
315,140,0.2352941176470588,0.09090909090909093,vida real,2,0.0003715777674648713,0.0007431555349297424,2.6259864177341408
316,144,0.2352941176470588,0.15384615384615385,primeira página,2,0.0003715777674648713,0.0007431555349297424,2.6226202225893913
317,145,0.06349206349206349,0.006802721088435374,mercado livre,2,0.0003715777674648713,0.0007431555349297424,2.627313994482682
318,160,0.14285714285714285,0.02424242424242424,escola keynesiana,2,0.0003715777674648713,0.0007431555349297424,2.628604067164396
319,163,0.15384615384615385,0.03361344537815126,maior número,2,0.0003715777674648713,0.0007431555349297424,1.3823273206509814
320,299,0.19047619047619047,0.1176470588235294,the Peace,2,0.0003715777674648713,0.0007431555349297424,2.6225356962116746
321,91,0.16666666666666666,0.1,sistema circulatório,2,0.0003715777674648713,0.0007431555349297424,2.630542220709842
322,86,0.3636363636363637,0.2857142857142857,Da mesma,2,0.0003715777674648713,0.0007431555349297424,1.6600578933226933
323,71,0.2,0.061538461538461535,primeira pessoa,2,0.0003715777674648713,0.0007431555349297424,2.6261352830884657
324,69,0.21052631578947367,0.13333333333333333,mercados livres,2,0.0003715777674648713,0.0007431555349297424,2.6239001584966304
325,10,0.5714285714285714,0.6666666666666666,Grécia Antiga,2,0.0003715777674648713,0.0007431555349297424,2.625902657591243
326,12,0.0625,0.03333333333333333,seu pupilo,2,0.0003715777674648713,0.0007431555349297424,2.6217493056492676
327,13,0.16,0.06666666666666668,grande influência,2,0.0003715777674648713,0.0007431555349297424,2.6286033794137342
328,18,0.3076923076923077,0.16666666666666666,simples acumulação,2,0.0003715777674648713,0.0007431555349297424,2.6218421300625536
329,21,0.4,0.26666666666666666,Duns Scot,2,0.0003715777674648713,0.0007431555349297424,2.6223401945641065
330,22,0.18181818181818185,0.0625,questões econômicas,2,0.0003715777674648713,0.0007431555349297424,2.6222844348862115
331,39,0.0392156862745098,0.020408163265306117,se opunha,2,0.0003715777674648713,0.0007431555349297424,2.62315824239839
332,43,0.6666666666666666,1.0,Índias Orientais,2,0.0003715777674648713,0.0007431555349297424,2.6208535682330103
333,46,0.060606060606060615,0.02185792349726776,importante era,2,0.0003715777674648713,0.0007431555349297424,0.9455227372018774
334,51,0.035398230088495575,0.01834862385321101,A capa,2,0.0003715777674648713,0.0007431555349297424,2.6260539166832766
335,55,0.5,0.5,Rei Luís,2,0.0003715777674648713,0.0007431555349297424,2.6234107076381847
336,58,0.17391304347826084,0.10526315789473684,século XVII,2,0.0003715777674648713,0.0007431555349297424,1.378382408350072
337,61,0.5714285714285714,0.6666666666666666,Isaac Newton,2,0.0003715777674648713,0.0007431555349297424,2.6303738367915526
338,63,0.5714285714285714,0.6666666666666666,Richard Cantillon,2,0.0003715777674648713,0.0007431555349297424,2.630440897781428
339,68,0.3333333333333333,0.25,Essay on,2,0.0003715777674648713,0.0007431555349297424,2.6249892342053935
340,184,0.19047619047619047,0.08333333333333333,James Mill,2,0.0003715777674648713,0.0007431555349297424,2.6237886590625124
341,165,0.25,0.08163265306122447,Seu primeiro,2,0.0003715777674648713,0.0007431555349297424,2.629411171509655
342,236,0.4,0.26666666666666666,Partido Comunista,2,0.0003715777674648713,0.0007431555349297424,-0.012949286488425655
343,265,0.3636363636363637,0.2222222222222222,última unidade,2,0.0003715777674648713,0.0007431555349297424,2.6197943291289705
344,237,0.3076923076923077,0.2222222222222222,Karl Kautsky,2,0.0003715777674648713,0.0007431555349297424,2.6184797281858248
345,195,0.010178117048346057,0.003436426116838488,que recebiam,2,0.0003715777674648713,0.0007431555349297424,2.6216025798780613
346,232,0.02298850574712644,0.011764705882352941,os empregadores,2,0.0003715777674648713,0.0007431555349297424,2.617452351119519
347,253,0.3333333333333333,0.16666666666666666,trabalhando independentemente,2,0.0003715777674648713,0.0007431555349297424,2.620715301626822
348,231,0.06779661016949153,0.007905138339920948,próprio trabalho,2,0.0003715777674648713,0.0007431555349297424,2.617277245488176
349,259,0.25,0.16666666666666666,Pure Economics,2,0.0003715777674648713,0.0007431555349297424,2.6207433489785594
350,229,0.3076923076923077,0.2222222222222222,socialmente necessário,2,0.0003715777674648713,0.0007431555349297424,2.617672283224021
351,219,0.02298850574712644,0.011764705882352941,os objetos,2,0.0003715777674648713,0.0007431555349297424,2.617820811044377
352,218,0.16,0.09523809523809523,riqueza material,2,0.0003715777674648713,0.0007431555349297424,2.6295364511572785
353,215,0.057142857142857134,0.015625,ele defendeu,2,0.0003715777674648713,0.0007431555349297424,2.619069610994747
354,214,0.26666666666666666,0.1,Ao invés,2,0.0003715777674648713,0.0007431555349297424,2.6217680669253838
355,211,0.2,0.061538461538461535,segundo volume,2,0.0003715777674648713,0.0007431555349297424,2.6205201734821215
356,239,0.6666666666666666,1.0,Beatrice Webb,2,0.0003715777674648713,0.0007431555349297424,2.6188534374698262
357,238,0.6666666666666666,1.0,Rosa Luxemburg,2,0.0003715777674648713,0.0007431555349297424,2.618676687585016
358,266,0.0625,0.03333333333333333,sua contraparte,2,0.0003715777674648713,0.0007431555349297424,2.625660983358989
359,209,0.5,0.5,Pierre-Joseph Proudhon,2,0.0003715777674648713,0.0007431555349297424,2.6198376761075437
360,268,0.5,0.4444444444444444,manchas solares,2,0.0003715777674648713,0.0007431555349297424,2.628588253707272
361,208,0.5,0.5,Robert Owen,2,0.0003715777674648713,0.0007431555349297424,2.6193684091058054
362,271,0.6666666666666666,1.0,representações matemáticas,2,0.0003715777674648713,0.0007431555349297424,2.6286679618520186
363,199,0.2352941176470588,0.15384615384615385,estado estacionário,2,0.0003715777674648713,0.0007431555349297424,2.621954189407816
364,284,0.16,0.06666666666666668,nova fase,2,0.0003715777674648713,0.0007431555349297424,2.627778680154438
365,285,0.18181818181818185,0.040404040404040414,ação humana,2,0.0003715777674648713,0.0007431555349297424,2.6283325231949286
366,294,0.6666666666666666,1.0,HM Treasury,2,0.0003715777674648713,0.0007431555349297424,2.625517727465053
367,297,0.4,0.26666666666666666,Economic Consequences,2,0.0003715777674648713,0.0007431555349297424,2.6225244399066336
368,311,0.13953488372093026,0.03225806451612903,atividade econômica,3,0.000356241560210285,0.00071248312042057,0.015020738664603087
369,102,0.2307692307692308,0.06923076923076922,segundo lugar,3,0.000356241560210285,0.00071248312042057,0.6128548377340806
370,240,0.0576923076923077,0.030612244897959183,se tornou,3,0.000356241560210285,0.00071248312042057,0.3983079155710437
371,59,0.2,0.06428571428571428,grande número,3,0.000356241560210285,0.00071248312042057,1.280142344506292
372,168,0.0069264069264069255,0.0034812880765883376,de modo que,2,0.00023749437347352328,0.00071248312042057,0.29790498042601926
373,30,0.24242424242424246,0.14814814814814814,mão de obra,2,0.00023749437347352328,0.00071248312042057,0.32358379701091716
374,200,0.5,0.4444444444444444,Além disso,4,0.00035029829139911466,0.0007005965827982293,0.43614831652974956
375,62,0.3225806451612903,0.16339869281045752,Por exemplo,5,0.00033520848497837,0.0006704169699567399,0.22839168473836438
376,70,0.10309278350515463,0.02289377289377289,no entanto,5,0.00033520848497837,0.0006704169699567399,0.3032400170073393
377,181,0.21428571428571427,0.0661764705882353,Um exemplo,3,0.0003035750430103495,0.000607150086020699,1.109576359866177
378,233,0.03225806451612903,0.011204481792717087,na terminologia,2,0.0002869805647358855,0.000573961129471771,2.324773438205354
379,354,0.034782608695652174,0.018018018018018014,contato com,2,0.0002869805647358855,0.000573961129471771,0.2540808652776246
380,6,0.17391304347826084,0.10526315789473684,século XVIII,2,0.0002869805647358855,0.000573961129471771,1.7582115171934594
381,305,0.01646090534979424,0.008368200836820083,do Juro,2,0.0002869805647358855,0.000573961129471771,2.3285019025364253
382,345,0.14814814814814814,0.02564102564102564,grandes empresas,2,0.0002869805647358855,0.000573961129471771,0.08789150912930745
383,349,0.2222222222222222,0.07272727272727272,síntese neoclássica,2,0.0002869805647358855,0.000573961129471771,1.7583595330131612
384,278,0.2857142857142857,0.11428571428571427,Joseph Schumpeter,2,0.0002869805647358855,0.000573961129471771,2.327926636292458
385,164,0.05555555555555555,0.006666666666666667,seu tempo,2,0.0002869805647358855,0.000573961129471771,1.7586373939038602
386,49,0.16666666666666666,0.1,bens produzidos,2,0.0002869805647358855,0.000573961129471771,2.3268321525878704
387,385,0.1111111111111111,0.04301075268817205,Os argumentos,2,0.0002869805647358855,0.000573961129471771,1.7564888274212669
388,154,0.2352941176470588,0.15384615384615385,crescimento populacional,2,0.0002869805647358855,0.000573961129471771,0.4469352892145727
389,150,0.17391304347826084,0.07407407407407407,economistas clássicos,2,0.0002869805647358855,0.000573961129471771,2.327771972009477
390,328,0.3333333333333333,0.25,pleno emprego,2,0.0002869805647358855,0.000573961129471771,1.761127641018041
391,243,0.21052631578947367,0.09523809523809523,Na década,2,0.0002869805647358855,0.000573961129471771,0.16036491426280827
392,242,0.125,0.019138755980861243,Economia neoclássica,2,0.0002869805647358855,0.000573961129471771,1.7498376609085113
393,196,0.015957446808510637,0.0030821917808219177,o custo,3,0.00026272371854933594,0.0005254474370986719,0.8070023054668428
394,149,0.25,0.1,terceiro lugar,2,0.00023749437347352328,0.00047498874694704656,1.027832220263091
395,180,0.043478260869565216,0.004602991944764097,por isso,2,0.00023749437347352328,0.00047498874694704656,0.2360874811118923
396,280,0.19047619047619047,0.04444444444444445,Friedrich Hayek,2,0.00023749437347352328,0.00047498874694704656,0.17595028194669513
397,190,0.6666666666666666,1.0,Reino Unido,2,0.00023749437347352328,0.00047498874694704656,0.0347131759998001
398,194,0.5,0.5,vantagens comparativas,2,0.00023749437347352328,0.00047498874694704656,1.206750291507517
399,230,0.15384615384615385,0.04765450483991065,por exemplo,8,0.00023412367377159278,0.00046824734754318556,-0.10773209035193769
