,Unnamed: 0,Cohesion_Dice,Cohesion_SCP,Conjuntos,Frequence,Tf_Idf,Tf_Idf vezes n,Score
0,5,0.5128205128205128,0.4807692307692308,moedas privadas,10,0.01819798229362476,0.03639596458724953,2.878733044430364
1,1,0.2553191489361702,0.08571428571428573,uma moeda,6,0.010918789376174859,0.021837578752349717,2.877404902335522
2,9,0.4444444444444444,0.3461538461538461,Bank of,6,0.00843290588343148,0.01686581176686296,2.6264220135387246
3,18,0.8,1.0,Irlanda do Norte,3,0.005459394688087429,0.016378184064262287,2.874169109295903
4,24,0.4615384615384616,0.2857142857142857,Libra de Totnes,3,0.005459394688087429,0.016378184064262287,2.8623025645724574
5,4,0.3333333333333333,0.18461538461538465,emissão de moedas privadas,2,0.0036395964587249523,0.014558385834899809,2.874704556666105
6,20,0.7058823529411765,0.75,Banco da Inglaterra,3,0.00421645294171574,0.01264935882514722,2.767745898538231
7,12,0.3333333333333333,0.20454545454545456,os cheques,3,0.005459394688087429,0.010918789376174859,2.876022686334691
8,19,0.6,0.75,libra esterlina,3,0.005459394688087429,0.010918789376174859,2.875134031665108
9,3,0.2962962962962963,0.14035087719298245,emissão de moedas,2,0.0036395964587249523,0.010918789376174857,2.8746973556268824
10,32,0.8,1.0,States Private Dollars,2,0.0036395964587249523,0.010918789376174857,2.858353055898102
11,31,0.6666666666666666,0.6666666666666666,condenado por acusações,2,0.0036395964587249523,0.010918789376174857,2.863772216691606
12,29,0.8,1.0,Agosto de 2013,2,0.0036395964587249523,0.010918789376174857,2.858599215755317
13,27,0.4705882352941176,0.2962962962962963,programas de fidelidade,2,0.0036395964587249523,0.010918789376174857,2.855110433616917
14,22,0.6153846153846154,0.5714285714285714,Cédula de 5,2,0.0036395964587249523,0.010918789376174857,2.870317790214868
15,21,0.6153846153846154,0.5714285714285714,ativos de apoio,2,0.0036395964587249523,0.010918789376174857,2.875854436887589
16,16,0.16326530612244894,0.09302325581395347,Bank e o,2,0.0036395964587249523,0.010918789376174857,2.8711706227209324
17,34,0.6666666666666666,0.6666666666666666,Artigo 18 Inciso,2,0.0036395964587249523,0.010918789376174857,2.8562071842975807
18,17,0.35294117647058826,0.2727272727272727,na Irlanda,3,0.00421645294171574,0.00843290588343148,2.872007827976797
19,33,0.6666666666666666,0.6666666666666666,bilhões de dólares,2,0.002810968627810493,0.008432905883431478,2.53669746736352
20,13,0.6666666666666666,1.0,Hong Kong,2,0.0036395964587249523,0.0072791929174499045,1.8495584868259969
21,10,0.5,0.5,cheques bancários,2,0.0036395964587249523,0.0072791929174499045,2.867746412850513
22,7,0.6666666666666666,1.0,gold currency,2,0.0036395964587249523,0.0072791929174499045,2.868894081462087
23,30,0.6666666666666666,1.0,von NotHaus,2,0.0036395964587249523,0.0072791929174499045,2.8591639957279162
24,6,0.3333333333333333,0.25,existem mais,2,0.0036395964587249523,0.0072791929174499045,2.869597832951526
25,14,0.6153846153846154,0.5714285714285714,meio de troca,2,0.0023262524196716234,0.006978757259014871,2.614927734490011
26,15,0.3333333333333333,0.25,of Scotland,2,0.002810968627810493,0.005621937255620986,2.070605546429854
27,8,0.3636363636363637,0.2857142857142857,bancos privados,2,0.002810968627810493,0.005621937255620986,2.0637450466674627
28,2,0.16,0.09523809523809523,moeda fiduciária,2,0.002810968627810493,0.005621937255620986,2.612037616028796
29,28,0.5,0.4444444444444444,sistema bancário,2,0.0023262524196716234,0.004652504839343247,0.5990731143378589
30,0,0.6153846153846154,0.8,Estados Unidos,4,0.00177390877400927,0.0035478175480185407,1.469782275325043
31,11,0.2727272727272727,0.12121212121212123,que os,6,0.001719927364955958,0.003439854729911916,1.8710222662428306
32,23,0.5714285714285714,0.6666666666666666,podem ser,4,0.0013379935156854095,0.0026759870313708195,2.3528831703677633
33,25,0.25,0.12121212121212123,A partir,2,0.0013133440390533289,0.0026266880781066577,2.3896702320331205
34,26,0.5,0.5,No entanto,2,0.0010129083806182948,0.0020258167612365896,1.0668787564728819
