,Unnamed: 0,Cohesion_Dice,Cohesion_SCP,Conjuntos,Frequence,Tf_Idf,Tf_Idf vezes n,Score
0,1,0.5660377358490566,0.6521739130434783,cultivo biointensivo,15,0.04357617992924746,0.08715235985849493,2.9279831251839084
1,5,0.5581395348837209,0.4444444444444444,por unidade de área,4,0.011620314647799324,0.0464812585911973,2.926177389649018
2,24,0.3278688524590164,0.15625,área de cultivo,5,0.014525393309749156,0.04357617992924747,2.9259794687753797
3,9,0.6666666666666666,1.0,Alan Chadwick,7,0.02033555063364882,0.04067110126729764,2.9271001039723847
4,8,0.2903225806451613,0.1232876712328767,método de cultivo biointensivo,3,0.008715235985849494,0.034860943943397976,2.926786767600208
5,11,0.6666666666666666,1.0,Ecology Action,5,0.014525393309749156,0.029050786619498312,2.9268803029132604
6,30,0.13793103448275862,0.0730593607305936,uma área de cultivo de,2,0.005810157323899662,0.029050786619498312,2.9243064173736086
7,14,0.64,0.5333333333333333,francês de cultivo de alimentos,2,0.005810157323899662,0.029050786619498312,2.9247989640597716
8,19,0.3870967741935484,0.25,sobre o método,3,0.008715235985849494,0.026145707957548482,2.9098127886927716
9,4,0.4705882352941176,0.4444444444444444,por unidade,4,0.011620314647799324,0.02324062929559865,2.9233692339014223
10,23,0.10714285714285714,0.050420168067226885,da área de,3,0.0067310360414985036,0.020193108124495512,2.8572033152363
11,28,0.6666666666666666,0.6666666666666666,Aumento de 100%,2,0.005810157323899662,0.017430471971698988,2.9203347905309345
12,26,0.8,1.0,parte da biomassa,2,0.005810157323899662,0.017430471971698988,2.9240971406234153
13,22,0.5714285714285714,0.4444444444444444,entre as plantas,2,0.005810157323899662,0.017430471971698988,2.9130718727301645
14,18,0.6666666666666666,1.0,Palo Alto,3,0.008715235985849494,0.017430471971698988,2.912698490357841
15,17,0.7272727272727273,0.8,cidade de Palo,2,0.005810157323899662,0.017430471971698988,2.911876269305015
16,15,0.1951219512195122,0.05517241379310345,cultivo de alimentos,2,0.005810157323899662,0.017430471971698988,2.9246304277298147
17,13,0.19047619047619047,0.1111111111111111,francês de cultivo,2,0.005810157323899662,0.017430471971698988,2.924793213315741
18,12,0.6666666666666666,1.0,intensivo biodinâmico,3,0.008715235985849494,0.017430471971698988,2.925581060255261
19,7,0.6,0.75,sistema fechado,3,0.008715235985849494,0.017430471971698988,2.9259022938670123
20,6,0.5714285714285714,0.5,fertilidade do solo,3,0.005570353480120171,0.016711060440360512,2.864961340891797
21,31,0.4444444444444444,0.3333333333333333,alto consumo,2,0.005810157323899662,0.011620314647799324,2.9233769112215624
22,20,0.6666666666666666,1.0,insumos externos,2,0.005810157323899662,0.011620314647799324,2.9254865161266017
23,21,0.3333333333333333,0.16666666666666666,agricultura biointensiva,2,0.005810157323899662,0.011620314647799324,2.9235376998017077
24,10,0.6666666666666666,1.0,John Jeavons,2,0.005810157323899662,0.011620314647799324,2.926128071233381
25,25,0.6666666666666666,1.0,Cultivo eficiente,2,0.005810157323899662,0.011620314647799324,2.9134802613690667
26,27,0.5714285714285714,0.6666666666666666,biomassa necessária,2,0.005810157323899662,0.011620314647799324,2.923976352539149
27,2,0.6666666666666666,1.0,pequena escala,2,0.005810157323899662,0.011620314647799324,2.9155522886963334
28,29,0.2352941176470588,0.15384615384615385,uma dieta,2,0.005810157323899662,0.011620314647799324,2.9234422668129003
29,32,0.6666666666666666,1.0,principal disseminadora,2,0.005810157323899662,0.011620314647799324,2.923590112449124
30,3,0.4,0.21052631578947367,produção de alimentos,2,0.003713568986746781,0.011140706960240342,2.456651100839429
31,16,0.6666666666666666,1.0,campo experimental,2,0.004487357360999003,0.008974714721998006,2.90700185476413
32,0,0.6666666666666666,1.0,Esta página,2,0.003713568986746781,0.007427137973493561,2.3412786898547675
